<?xml version="1.0" encoding="UTF-8"?>
<svg width="24px" height="24px" viewBox="0 0 24 24" version="1.1" xmlns="http://www.w3.org/2000/svg" xmlns:xlink="http://www.w3.org/1999/xlink">
    <title>Group 28@3x</title>
    <g id="Panel" stroke="none" stroke-width="1" fill="none" fill-rule="evenodd">
        <g id="Group-27">
            <rect id="Rectangle-Copy-17" x="0" y="0" width="24" height="24"></rect>
            <g id="Group-3" transform="translate(1.000000, 3.000000)" fill="#BABCBF" fill-rule="nonzero">
                <path d="M19.0575787,13.8370097 L19.0575787,10.9317739 L17.9621063,10.9317739 L17.9621063,13.2543347 C17.9621063,13.6174891 17.6564961,13.9140932 17.2839567,13.9140932 L3.71702756,13.9140932 C3.34448819,13.9140932 3.03887795,13.6177285 3.03887795,13.2543347 L3.03887795,5.33723197 C3.03887795,4.97311993 3.34448819,4.67675524 3.71702756,4.67675524 L11.4788386,4.67675524 L11.4788386,4 L2.72293307,4 C2.29502953,4 1.94365157,4.33921549 1.94365157,4.75647208 L1.94365157,9.29793783 L1.94365157,13.8370097 L1.94365157,14.5934818 L0,16.8638555 C0,17.4910571 0.522145669,18 1.16584646,18 L19.8341535,18 C20.4778543,18 21,17.4910571 21,16.8638555 L19.0563484,14.5934818 L19.0563484,13.8370097 L19.0575787,13.8370097 Z M12.0575787,17.6203276 L8.94537402,17.6203276 C8.8371063,17.6203276 8.75073819,17.5363018 8.75073819,17.4309702 C8.75073819,17.3256387 8.8371063,17.2416128 8.94537402,17.2416128 L12.0565945,17.2416128 C12.1631398,17.2416128 12.2512303,17.3256387 12.2512303,17.4309702 C12.2495079,17.5363018 12.164124,17.6203276 12.0575787,17.6203276 Z M7.29429134,16.8638555 L7.88779528,16.1708218 L13.113435,16.1708218 L13.706939,16.8638555 C13.706939,16.8638555 7.29429134,16.8638555 7.29429134,16.8638555 Z" id="Shape"></path>
                <g id="Group" transform="translate(9.000000, 0.000000)">
                    <rect id="Rectangle" x="0.1193445" y="9.42979979" width="1.62480769" height="1.6681138"></rect>
                    <rect id="Rectangle" x="1.13734078" y="7.13652266" width="1.62382341" height="1.66988409"></rect>
                    <rect id="Rectangle" x="2.73483457" y="9.23076923" width="1.62382341" height="1.6688725"></rect>
                    <rect id="Rectangle" x="4.02596981" y="6.4574921" width="1.92698304" height="1.98044257"></rect>
                    <rect id="Rectangle" x="6.75145368" y="0.387186512" width="1.92698304" height="1.98044257"></rect>
                    <rect id="Rectangle" x="3.25527502" y="3.96872497" width="1.92698304" height="1.98044257"></rect>
                    <rect id="Rectangle" x="6.28391853" y="3.12151739" width="2.75205955" height="2.82840885"></rect>
                    <rect id="Rectangle" x="8.3393507" y="6.53083246" width="3.32885029" height="3.42221286"></rect>
                    <rect id="Rectangle" x="9.59948098" y="0.0940779768" width="4.13645575" height="4.2512118"></rect>
                    <rect id="Rectangle" x="5.78710091" y="8.66503688" width="1.92698304" height="1.98044257"></rect>
                </g>
            </g>
        </g>
    </g>
</svg>