<?xml version="1.0" encoding="UTF-8"?>
<svg width="24px" height="24px" viewBox="0 0 24 24" version="1.1" xmlns="http://www.w3.org/2000/svg" xmlns:xlink="http://www.w3.org/1999/xlink">
    <title>Group 15@3x</title>
    <g id="Panel" stroke="none" stroke-width="1" fill="none" fill-rule="evenodd">
        <g id="Group-12">
            <rect id="Rectangle-Copy-11" x="0" y="0" width="24" height="24"></rect>
            <g id="IC_PRODUCT" transform="translate(1.000000, 1.000000)">
                <g id="Group" transform="translate(11.500000, 11.000000) rotate(45.000000) translate(-11.500000, -11.000000) translate(5.000000, 2.000000)">
                    <path d="M0.172252191,6.16113517 L4.00674199,1.52873872 C4.27086316,1.20965742 4.74364219,1.16510343 5.06272349,1.42922461 C5.09894065,1.45920355 5.13225867,1.49252157 5.16223761,1.52873872 L8.9967274,6.16113517 C9.10806136,6.29563626 9.16897959,6.46476705 9.16897959,6.63936887 L9.16897959,16.6961538 C9.16897959,17.1103674 8.83319315,17.4461538 8.41897959,17.4461538 L0.75,17.4461538 C0.335786438,17.4461538 -1.36371568e-12,17.1103674 -1.36424205e-12,16.6961538 L-1.36424205e-12,6.63936887 C-1.36525206e-12,6.46476705 0.0609182269,6.29563626 0.172252191,6.16113517 Z" id="Rectangle-11" stroke="#52565E" stroke-width="0.9" fill="#52565E"></path>
                    <ellipse id="Oval" fill="#FFFFFF" cx="4.83918367" cy="6.64615385" rx="1.78285714" ry="1.66153846"></ellipse>
                    <path d="M9.1473035,7.49772976 C9.51804423,7.54872012 10.0306339,7.36019477 10.6850726,6.9321537 C11.6667306,6.29009211 12.3056254,5.2445111 12.3056254,4.06372535 C12.3056254,2.11121996 10.5587108,0.528401605 8.40378242,0.528401605 C6.24885402,0.528401605 4.5019394,2.11121996 4.5019394,4.06372535 C4.5019394,5.40771965 5.32965673,6.57655005 6.54841073,7.17455545" id="Oval-Copy" stroke="#52565E" stroke-width="0.9"></path>
                </g>
            </g>
        </g>
    </g>
</svg>